{
    "variants": {
        "normal": [
            { "model": "libraria:paper_pile" },
            { "model": "libraria:paper_pile", "y": 90 },
            { "model": "libraria:paper_pile", "y": 180 },
            { "model": "libraria:paper_pile", "y": 270 }
        ]
    }
}
